…
#### Extracting point data

It’s pretty easy to extract values at various points. We provide a
sample of sites (some buoys and two airports). Below we can extract
point data in long form.

``` r
sites = read_buoys()
values = extract_points(s, sites)
values
```

    ## # A tibble: 64 × 4
    ##    point name  time                   value
    ##    <chr> <chr> <dttm>                 <dbl>
    ##  1 p1    uo    2024-07-01 00:00:00  0.0317 
    ##  2 p1    uo    2024-07-02 00:00:00 -0.00288
    ##  3 p1    uo    2024-07-03 00:00:00  0.0914 
    ##  4 p1    uo    2024-07-04 00:00:00  0.150  
    ##  5 p2    uo    2024-07-01 00:00:00  0.169  
    ##  6 p2    uo    2024-07-02 00:00:00  0.0770 
    ##  7 p2    uo    2024-07-03 00:00:00  0.222  
    ##  8 p2    uo    2024-07-04 00:00:00  0.218  
    ##  9 p3    uo    2024-07-01 00:00:00 -0.0961 
    ## 10 p3    uo    2024-07-02 00:00:00 -0.0656 
    ## # ℹ 54 more rows

Or we can do the same in wide format.

``` r
values = extract_points(s, sites, form = "wide")
values
```

    ## # A tibble: 32 × 4
    ##    point time                      uo      vo
    ##    <chr> <dttm>                 <dbl>   <dbl>
    ##  1 p1    2024-07-01 00:00:00  0.0317   0.114 
    ##  2 p1    2024-07-02 00:00:00 -0.00288  0.123 
    ##  3 p1    2024-07-03 00:00:00  0.0914   0.117 
    ##  4 p1    2024-07-04 00:00:00  0.150    0.130 
    ##  5 p2    2024-07-01 00:00:00  0.169   -0.0172
    ##  6 p2    2024-07-02 00:00:00  0.0770   0.0386
    ##  7 p2    2024-07-03 00:00:00  0.222    0.0397
    ##  8 p2    2024-07-04 00:00:00  0.218    0.0299
    ##  9 p3    2024-07-01 00:00:00 -0.0961  -0.0462
    ## 10 p3    2024-07-02 00:00:00 -0.0656  -0.0612
    ## # ℹ 22 more rows
…
